{
    "border": "pixel",
    "current_border_width": 2,
    "floating": "auto_off",
    "geometry": {
       "height": 991,
       "width": 1852,
       "x": 34,
       "y": 55
    },
    "name": "Patchwork",
    "percent": 0.6,
    "swallows": [
       {
       "class": "^Patchwork$",
       "instance": "^patchwork$",
       "title": "^Patchwork$",
       "window_role": "^browser\\-window$"
       }
    ],
    "type": "con"
}

{
    "border": "pixel",
    "current_border_width": 2,
    "floating": "auto_off",
    "geometry": {
       "height": 825,
       "width": 377,
       "x": 771,
       "y": 140
    },
    "name": "Sengi",
    "percent": 0.4,
    "swallows": [
       {
       "class": "^sengi$",
       "instance": "^sengi$",
       "title": "^Sengi$",
       "window_role": "^browser\\-window$"
       }
    ],
    "type": "con"
}

